1 10 20
100 200 125
201 210 89
900 1000 174
321 187 131
209 318 131
89 83 111
491 145 144
406 186 144
114 233 128
150 241 128
179 312 128
4 29 112
182 199 120
278 36 128
240 316 131
182 389 144
435 472 129
229 464 144
382 100 144
220 139 125
157 347 144
426 391 134
100 444 144
474 58 144
71 414 144
140 497 144
375 430 134
416 229 144
245 171 128
493 104 144
326 400 144
445 158 144
178 420 144
40 398 144
297 207 128
46 306 128
174 475 144
142 426 144
283 299 118
409 176 144
72 312 128
125 64 119
49 33 110
263 7 128
181 246 128
319 231 131
160 160 11
458 272 144
487 81 144
311 45 128
267 270 43
51 190 125
253 8 128
358 294 144
476 387 134
44 361 144
406 72 144
379 24 144
159 470 144
211 456 144
494 60 144
337 19 144
406 444 134
265 267 123
142 126 122
3 189 125
359 22 144
2 292 128
406 305 144
7 176 125
279 238 123
121 345 144
470 280 144
491 446 142
102 328 144
344 170 144
20 166 122
44 287 128
169 293 128
290 34 128
148 31 122
46 157 122
149 225 125
363 234 144
286 389 144
392 373 121
165 127 122
308 66 128
142 286 128
105 155 122
238 454 144
426 9 144
294 113 128
249 42 128
56 444 144
442 102 144
254 413 144
442 60 144
386 116 144
324 44 131
497 434 142
224 373 144
14 279 128
85 159 122
376 279 144
73 14 116
275 191 128
89 248 128
28 296 128
206 105 125
435 183 144
211 52 125
83 49 116
192 180 107
412 397 134
106 421 144
110 235 128
374 154 144
251 464 144
311 51 128
152 167 112
220 28 125
165 277 128
404 367 121
348 235 144
408 434 134
444 29 144
71 462 144
243 83 128
51 353 144
201 420 144
278 410 144
353 342 126
344 118 144
205 94 125
260 306 123
320 423 144
408 217 144
285 188 128
43 133 122
164 169 112
378 110 144
89 60 116
67 294 128
318 186 131
493 151 144
50 77 116
173 328 144
476 197 144
40 179 125
340 486 134
447 3 144
326 227 131
273 468 144
1 1 1
2 2 2
2 1 2
99 100 26
100 100 26
