.....................
----------------------------------------------------------------------
Ran 21 tests in 1.062s

OK
Name             Stmts   Miss Branch BrPart  Cover   Missing
------------------------------------------------------------
Collatz.py          65      1     34      3    96%   67, 56->62, 60->62, 62->67
TestCollatz.py      92      4      0      0    96%   42-45
------------------------------------------------------------
TOTAL              157      5     34      3    96%
