1 10 20
100 200 125
201 210 89
900 1000 174
1 1 1
1120 500 179
100 5 119
24 37 112
450 650 145
112 212 125
34 890 179
789 800 122
12 122 119
78 253 128
9 12 20
78 184 125
1999 3748 238
234 333 144
458 523 142
908 12890 268
134 259 128
648 942 179
3000 4000 238
543 870 171
132 900 179
489 800 171
422 478 129
11 433 144
34 89 116
25 43 112
13 899 179
45 70 113
31 41 110
90 111 119
849 900 179
322 899 179
14 250 128
90 199 125
400 500 142
600 700 145
800 900 179
950 1050 156
67 77 116
89 99 119
14 44 112
35 65 113
10 29 112
10 39 112
10 49 112
29 122 119
541 840 171
17 20 21
18 21 21
19 355 144
80 92 111
98 102 26
57 89 116
450 467 129
489 933 179
15 200 125
16 33 112
17 34 112
78 195 125
56 95 116
63 95 116
72 95 116
12 95 116
70 95 116
18 33 112
94 95 106
99 800 171
4776 5000 210
8999 9000 185
456 711 171
55 66 113
66 77 116
77 88 111
88 99 119
99 111 114
4132 6978 262
54 44 113
65 87 116
90 97 119
27 267 128
28 345 144
29 477 144
30 9999 262
1 355 144
67 80 116
30 80 116
40 80 116
50 80 116
60 80 116
70 80 116
51 55 113
51 75 116
51 85 116
51 95 116
51 105 119
12 44 112
144 444 144
849 955 179
1434 9000 262
8900 2929 262
